{
	"name": "zug-dumper",
	"authors": [
		"Emil Nicolaie Perhinschi"
	],
	"description": "basic data dumper to be used to inspect D objects or data structures",
	"copyright": "Copyright © 2018, Emil Nicolaie Perhinschi",
	"license": "proprietary",
	"targetType": "library",
	"dependencies": {
		"zug-tap": "*"
	}
}
